[
    {
      "name": "Art &amp; Architecture",
      "author": "Jane Doe",
      "description": "N/A",
      "image_link": "Books/art-architecture.jpg",
      "genre": "art-architecture",
      "genre_name": "Art &amp; Architecture",
      "price": "19.95$"
    },
    {
      "name": "Educated",
      "author": "Tara Westover",
      "description": "This book discusses...",
      "image_link": "Books/biography-memoir.jpg",
      "genre": "biography-memoir",
      "genre_name": "Biography &amp; Memoir",
      "price": "29.95$"
    },
    {
      "name": "Shoe Dog",
      "author": "Phil Knight",
      "description": "This book explores Nike...",
      "image_link": "Books/business-finance.jpg",
      "genre": "business-finance",
      "genre_name": "Business &amp; Finance",
      "price": "69.95$"
    },
    {
      "name": "Computer Science - Distilled",
      "author": "Jane Doe",
      "description": "Learn the art of solving computational problems.",
      "image_link": "Books/computers.jpg",
      "genre": "computers",
      "genre_name": "Computers",
      "price": "9.99$",
      "section": [
        "bestseller",
        "new-releases",
        "on-sale"
      ]
    },
    {
      "name": "Oh She Glows Every Day",
      "author": "Angela Liddon",
      "description": "This book will teach you the way of the chef to the point where Chef Ramsey will roast your food.",
      "image_link": "Books/cookbooks.jpg",
      "genre": "cookbooks",
      "genre_name": "Cookbooks",
      "price": "6009.99$",
      "section": [
        "on-sale"
      ]
    },
    {
      "name": "The Disaster Artist",
      "author": "Greg and Tom",
      "description": "Some cool book.",
      "image_link": "Books/entertainment.jpg",
      "genre": "entertainment",
      "genre_name": "Entertainment",
      "price": "19.95$"
    },
    {
      "name": "I've Been Thinking...",
      "author": "Marias Shriver",
      "description": "Read the thoughts of somebody.",
      "image_link": "Books/faith-spirituality.jpg",
      "genre": "faith-spirituality",
      "genre_name": "Faith &amp; Spirituality",
      "price": "1.00$"
    },
    {
      "name": "Co-Parenting From the Inside Out",
      "author": "Karen L. Kristjanson",
      "description": "Some book that will teach you how to raise demon spawns.",
      "image_link": "Books/family_relationship.jpg",
      "genre": "family_relationship",
      "genre_name": "Family Relationship",
      "price": "19.95$"
    },
    {
      "name": "Fire &amp; Blood",
      "author": "George R.R. Martin",
      "description": "Looking for incest, well this book has it? Like dragons as well? Well damn, this book has it too!",
      "image_link": "Books/fiction-literature.jpg",
      "genre": "fiction-literature",
      "genre_name": "Fiction &amp; Literature",
      "price": "39.99$",
      "section": [
        "new-releases"
      ]
    },
    {
      "name": "The Infinity Gauntlet",
      "author": "Jane Doe",
      "description": "Is Thanos a good strong boi?",
      "image_link": "Books/graphic_novels-manga.jpg",
      "genre": "graphic_novels-manga",
      "genre_name": "Graphic Novels &amp; Manga",
      "price": "19.95$"
    },
    {
      "name": "The Subtle Art of Not Giving a F*ck",
      "author": "Jane Doe",
      "description": "I don't care.",
      "image_link": "Books/health-well_being.jpg",
      "genre": "health-well_being",
      "genre_name": "Health &amp; Well Being",
      "price": "19.95$"
    },
    {
      "name": "Fire And Fury",
      "author": "Micheal Wolff",
      "description": "Some book about some ass hat.",
      "image_link": "Books/history.jpg",
      "genre": "history",
      "genre_name": "History",
      "price": "19.95$"
    },
    {
      "name": "Prick",
      "author": "Jane Doe",
      "description": "Garden stuff.",
      "image_link": "Books/home-garden.jpg",
      "genre": "home-garden",
      "genre_name": "Home &amp; Garden",
      "price": "19.95$"
    },
    {
      "name": "Cyanide &amp; Happiness",
      "author": "Jane Doe",
      "description": "Some funny comics.",
      "image_link": "Books/humor-comedy.jpg",
      "genre": "humor-comedy",
      "genre_name": "Humor &amp; Comedy",
      "price": "19.95$"
    },
    {
      "name": "Captain Underpants",
      "author": "Jane Doe",
      "description": "Some creep in his underpants.",
      "image_link": "Books/kids_books.jpg",
      "genre": "kids_books",
      "genre_name": "Kids' Books",
      "price": "19.95$"
    },
    {
      "name": "The Dry",
      "author": "Jane Harper",
      "description": "Something dry?",
      "image_link": "Books/mystery-suspense.jpg",
      "genre": "mystery-suspense",
      "genre_name": "Mystery &amp; Suspense",
      "price": "19.95$"
    },
    {
      "name": "The Circle Game",
      "author": "Margaret Atwood",
      "description": "Some poems I guess.",
      "image_link": "Books/poetry.jpg",
      "genre": "poetry",
      "genre_name": "Poetry",
      "price": "19.95$"
    },
    {
      "name": "GED Preparation",
      "author": "Some One",
      "description": "Some book about something.",
      "image_link": "Books/reference-language.jpg",
      "genre": "reference-language",
      "genre_name": "Reference &amp; Language",
      "price": "19.95$"
    },
    {
      "name": "About that kiss",
      "author": "Jill Shalvis",
      "description": "Some romance book.",
      "image_link": "Books/romance.jpg",
      "genre": "romance",
      "genre_name": "Romance",
      "price": "19.95$"
    },
    {
      "name": "Astrophysics for People in a Hurry",
      "author": "Neil deGrase Tyson",
      "description": "Some book about stars.",
      "image_link": "Books/science-nature.jpg",
      "genre": "science-nature",
      "genre_name": "Science &amp; Nature",
      "price": "19.95$"
    },
    {
      "name": "Altered Carbon",
      "author": "Richard Morgan",
      "description": "Great book with a great series.",
      "image_link": "Books/sci_fi-fantasy.jpg",
      "genre": "sci_fi-fantasy",
      "genre_name": "Sci Fi &amp; Fantasy",
      "price": "19.95$"
    },
    {
      "name": "Bygone Badass Broads",
      "author": "Some Author",
      "description": "Some book about stuff.",
      "image_link": "Books/social-cultural_studies.jpg",
      "genre": "social-cultural_studies",
      "genre_name": "Social &amp; Cultural Studies",
      "price": "39.95$"
    },
    {
      "name": "The McDavid Effect",
      "author": "Mart Klinkenberg",
      "description": "Some book about some average joe playing hockey.",
      "image_link": "Books/sports-fitness.jpg",
      "genre": "sports-fitness",
      "genre_name": "Sports &amp; Fitness",
      "price": "99.95$"
    },
    {
      "name": "Fat Girl on a Plane",
      "author": "Kelly Devos",
      "description": "A book about some edgy kid that's overweight.",
      "image_link": "Books/teen_books.jpg",
      "genre": "teen_books",
      "genre_name": "Teen Books",
      "price": "0.50$",
      "section": [
        "coming-soon"
      ]
    },
    {
      "name": "Japan",
      "author": "Some Person",
      "description": "Ah, the nice country of the rising sun. As many know, this country lost WWII along with Germany, but it's heritage remained. This book will cover all the great spots to visit.",
      "image_link": "Books/travel.jpg",
      "genre": "travel",
      "genre_name": "Travel",
      "price": "90019.95$"
    },
    {
      "name": "A False Report",
      "author": "Some People",
      "description": "Random Book chosen that fit this criteria on another website.",
      "image_link": "Books/true_crime.jpg",
      "genre": "true_crime",
      "genre_name": "True Crime",
      "price": "19.95$"
    }
  ]